{
  "version": "2.1",
  "licenses": [
    {
      "id": "BSD-2-Clause",
      "name": "BSD 2-Clause \"Simplified\" License",
      "url": "https://opensource.org/licenses/BSD-2-Clause"
    },
    {
      "id": "BSD-3-Clause",
      "name": "BSD 3-Clause \"New\" or \"Revised\" License",
      "url": "https://opensource.org/licenses/BSD-3-Clause"
    },
    {
      "id": "BSD-3-Clause-Attribution",
      "name": "BSD with attribution",
      "url": "https://fedoraproject.org/wiki/Licensing/BSD_with_Attribution"
    },
    {
      "id": "MIT",
      "name": "MIT License",
      "url": "https://opensource.org/licenses/MIT"
    }
  ],
  "dependencies": [
    {
      "name": "classpreloader/classpreloader",
      "version": "3.2.0",
      "package_manager": "composer",
      "path": "composer.lock",
      "licenses": [
        "MIT"
      ]
    },
    {
      "name": "dnoegel/php-xdg-base-dir",
      "version": "0.1",
      "package_manager": "composer",
      "path": "composer.lock",
      "licenses": [
        "MIT"
      ]
    },
    {
      "name": "doctrine/inflector",
      "version": "v1.1.0",
      "package_manager": "composer",
      "path": "composer.lock",
      "licenses": [
        "MIT"
      ]
    },
    {
      "name": "jakub-onderka/php-console-color",
      "version": "0.1",
      "package_manager": "composer",
      "path": "composer.lock",
      "licenses": [
        "BSD-2-Clause"
      ]
    },
    {
      "name": "jakub-onderka/php-console-highlighter",
      "version": "v0.3.2",
      "package_manager": "composer",
      "path": "composer.lock",
      "licenses": [
        "MIT"
      ]
    },
    {
      "name": "jeremeamia/SuperClosure",
      "version": "2.3.0",
      "package_manager": "composer",
      "path": "composer.lock",
      "licenses": [
        "MIT"
      ]
    },
    {
      "name": "laravel/framework",
      "version": "v5.3.31",
      "package_manager": "composer",
      "path": "composer.lock",
      "licenses": [
        "MIT"
      ]
    },
    {
      "name": "league/flysystem",
      "version": "1.0.42",
      "package_manager": "composer",
      "path": "composer.lock",
      "licenses": [
        "MIT"
      ]
    },
    {
      "name": "monolog/monolog",
      "version": "1.23.0",
      "package_manager": "composer",
      "path": "composer.lock",
      "licenses": [
        "MIT"
      ]
    },
    {
      "name": "mtdowling/cron-expression",
      "version": "v1.2.1",
      "package_manager": "composer",
      "path": "composer.lock",
      "licenses": [
        "MIT"
      ]
    },
    {
      "name": "nesbot/carbon",
      "version": "1.22.1",
      "package_manager": "composer",
      "path": "composer.lock",
      "licenses": [
        "MIT"
      ]
    },
    {
      "name": "nikic/php-parser",
      "version": "v3.1.4",
      "package_manager": "composer",
      "path": "composer.lock",
      "licenses": [
        "BSD-3-Clause"
      ]
    },
    {
      "name": "paragonie/random_compat",
      "version": "v2.0.11",
      "package_manager": "composer",
      "path": "composer.lock",
      "licenses": [
        "MIT"
      ]
    },
    {
      "name": "psr/log",
      "version": "1.0.2",
      "package_manager": "composer",
      "path": "composer.lock",
      "licenses": [
        "MIT"
      ]
    },
    {
      "name": "psy/psysh",
      "version": "v0.8.17",
      "package_manager": "composer",
      "path": "composer.lock",
      "licenses": [
        "MIT"
      ]
    },
    {
      "name": "ramsey/uuid",
      "version": "3.7.3",
      "package_manager": "composer",
      "path": "composer.lock",
      "licenses": [
        "MIT"
      ]
    },
    {
      "name": "swiftmailer/swiftmailer",
      "version": "v5.4.9",
      "package_manager": "composer",
      "path": "composer.lock",
      "licenses": [
        "MIT"
      ]
    },
    {
      "name": "symfony/console",
      "version": "v3.1.10",
      "package_manager": "composer",
      "path": "composer.lock",
      "licenses": [
        "MIT"
      ]
    },
    {
      "name": "symfony/debug",
      "version": "v3.1.10",
      "package_manager": "composer",
      "path": "composer.lock",
      "licenses": [
        "MIT"
      ]
    },
    {
      "name": "symfony/event-dispatcher",
      "version": "v3.4.4",
      "package_manager": "composer",
      "path": "composer.lock",
      "licenses": [
        "MIT"
      ]
    },
    {
      "name": "symfony/finder",
      "version": "v3.1.10",
      "package_manager": "composer",
      "path": "composer.lock",
      "licenses": [
        "MIT"
      ]
    },
    {
      "name": "symfony/http-foundation",
      "version": "v3.1.10",
      "package_manager": "composer",
      "path": "composer.lock",
      "licenses": [
        "MIT"
      ]
    },
    {
      "name": "symfony/http-kernel",
      "version": "v3.1.10",
      "package_manager": "composer",
      "path": "composer.lock",
      "licenses": [
        "MIT"
      ]
    },
    {
      "name": "symfony/polyfill-mbstring",
      "version": "v1.7.0",
      "package_manager": "composer",
      "path": "composer.lock",
      "licenses": [
        "MIT"
      ]
    },
    {
      "name": "symfony/polyfill-php56",
      "version": "v1.7.0",
      "package_manager": "composer",
      "path": "composer.lock",
      "licenses": [
        "MIT"
      ]
    },
    {
      "name": "symfony/polyfill-util",
      "version": "v1.7.0",
      "package_manager": "composer",
      "path": "composer.lock",
      "licenses": [
        "MIT"
      ]
    },
    {
      "name": "symfony/process",
      "version": "v3.1.10",
      "package_manager": "composer",
      "path": "composer.lock",
      "licenses": [
        "MIT"
      ]
    },
    {
      "name": "symfony/routing",
      "version": "v3.1.10",
      "package_manager": "composer",
      "path": "composer.lock",
      "licenses": [
        "MIT"
      ]
    },
    {
      "name": "symfony/translation",
      "version": "v3.1.10",
      "package_manager": "composer",
      "path": "composer.lock",
      "licenses": [
        "MIT"
      ]
    },
    {
      "name": "symfony/var-dumper",
      "version": "v3.1.10",
      "package_manager": "composer",
      "path": "composer.lock",
      "licenses": [
        "MIT"
      ]
    },
    {
      "name": "vlucas/phpdotenv",
      "version": "v2.4.0",
      "package_manager": "composer",
      "path": "composer.lock",
      "licenses": [
        "BSD-3-Clause-Attribution"
      ]
    }
  ]
}