{
  "version": "1.1",
  "licenses": [
    {
      "count": 2,
      "name": "MIT"
    },
    {
      "count": 1,
      "name": "New BSD"
    },
    {
      "count": 1,
      "name": "New BSD, MIT"
    }
  ],
  "dependencies": [
    {
      "licenses": [
        {
          "name": "New BSD",
          "url": "http://opensource.org/licenses/BSD-3-Clause"
        }
      ],
      "license": {
        "name": "New BSD",
        "url": "http://opensource.org/licenses/BSD-3-Clause"
      },
      "dependency": {
        "name": "highlight.js",
        "url": "https://highlightjs.org/",
        "description": "Syntax highlighting with language autodetection.",
        "pathes": [
          "."
        ]
      }
    },
    {
      "licenses": [
        {
          "name": "MIT",
          "url": "http://opensource.org/licenses/mit-license"
        },
        {
          "name": "New BSD",
          "url": "http://opensource.org/licenses/BSD-3-Clause"
        }
      ],
      "license": {
        "name": "New BSD, MIT",
        "url": "http://opensource.org/licenses/BSD-3-Clause"
      },
      "dependency": {
        "name": "js-npm",
        "description": "Test project for js-npm",
        "pathes": [
          "."
        ]
      }
    },
    {
      "licenses": [
        {
          "name": "MIT",
          "url": "http://opensource.org/licenses/mit-license"
        }
      ],
      "license": {
        "name": "MIT",
        "url": "http://opensource.org/licenses/mit-license"
      },
      "dependency": {
        "name": "moment",
        "url": "http://momentjs.com",
        "description": "Parse, validate, manipulate, and display dates",
        "pathes": [
          "."
        ]
      }
    },
    {
      "licenses": [
        {
          "name": "MIT",
          "url": "http://opensource.org/licenses/mit-license"
        }
      ],
      "license": {
        "name": "MIT",
        "url": "http://opensource.org/licenses/mit-license"
      },
      "dependency": {
        "name": "normalize.css",
        "url": "https://necolas.github.io/normalize.css",
        "description": "A modern alternative to CSS resets",
        "pathes": [
          "."
        ]
      }
    }
  ]
}
